{"description":"Documents of type Rule and whose Associated Unified Agenda Deemed Significant Under EO 12866","count":9449,"total_pages":50,"next_page_url":"https://www.federalregister.gov/api/v1/documents?conditions%5Bsignificant%5D=1&conditions%5Btype%5D%5B%5D=RULE&fields%5B%5D=title&fields%5B%5D=type&fields%5B%5D=publication_date&fields%5B%5D=abstract&fields%5B%5D=html_url&format=json&order=newest&page=2&per_page=5&search_after_cursor=WzE3ODI5NTA0MDAwMDAsIjIwMjYtMTM0NTAiXQ","results":[{"title":"Rescinding the Definition of “Harm” Under the Endangered Species Act","type":"Rule","publication_date":"2026-07-14","abstract":"We, the U.S. Fish and Wildlife Service (FWS) and the National Marine Fisheries Service (NMFS; collectively referred to as the \"Services\") rescind the regulatory definition of \"harm\" in our Endangered Species Act (ESA or the Act) regulations. This rescission removes the regulatory definition of \"harm\" from the Code of Federal Regulations (CFR) in Title 50 parts 17 and 222.","html_url":"https://www.federalregister.gov/documents/2026/07/14/2026-14195/rescinding-the-definition-of-harm-under-the-endangered-species-act"},{"title":"Natural Resource Damages for Hazardous Substances","type":"Rule","publication_date":"2026-07-13","abstract":"This final rule revises the simplified Type A procedures in the regulations for conducting natural resource damage assessments for hazardous substance releases. Additionally, this final rule includes several conforming changes and corrections intended to fix citations, provide for consistent use of terminology, and remove outdated or duplicative rule provisions and definitions. The Department of the Interior (Interior) is removing provisions that it believes are no longer applicable, clarifying other provisions by incorporating language that would implement existing Interior regulatory interpretations, and making other changes and corrections. These revisions also allow for the regulations to meet information collection requirements mandated by the Office of Management and Budget.","html_url":"https://www.federalregister.gov/documents/2026/07/13/2026-14052/natural-resource-damages-for-hazardous-substances"},{"title":"Zero-Based Regulating","type":"Rule","publication_date":"2026-07-09","abstract":"Due to receipt of adverse comments, the Department of Energy (DOE) is withdrawing the direct final rule titled \"Zero-Based Regulating,\" which published on May 29, 2026.","html_url":"https://www.federalregister.gov/documents/2026/07/09/2026-13875/zero-based-regulating"},{"title":"Airline Refunds and Other Consumer Protections","type":"Rule","publication_date":"2026-07-07","abstract":"The U.S. Department of Transportation (Department or DOT) is extending its current enforcement discretion, announced on December 5, 2025, regarding specific refund regulations. Under current regulations, a flight assigned a different flight number than was active at the time of ticket purchase is considered a \"cancelled flight,\" making the consumer eligible for a prompt refund and related notifications. The Department is extending its discretion to not enforce these requirements for renumbered flights, provided that the passenger is rebooked on a flight with a new number and the flight operates without any \"significant change or delay\" as defined in its regulations. This extension provides the Department with the necessary time to complete the pending rulemaking addressing the definition of a flight cancellation.","html_url":"https://www.federalregister.gov/documents/2026/07/07/2026-13675/airline-refunds-and-other-consumer-protections"},{"title":"Increasing Flexibility on Disclosure of Airline Ancillary Fees","type":"Rule","publication_date":"2026-07-02","abstract":"The Department of Transportation (Department or DOT) is issuing this final rule to implement the Fifth Circuit's vacatur of the Department's 2024 Final Rule, Enhancing Transparency of Airline Ancillary Service Fees. Because the legal effect of the court's decision is to reinstate the rules previously in force, this action revises the Code of Federal Regulations (CFR) to restore the Department's regulations on the disclosure of fees for ancillary services as they existed before publication of the 2024 Rule, returning to the standards established in a rule issued in 2011.","html_url":"https://www.federalregister.gov/documents/2026/07/02/2026-13450/increasing-flexibility-on-disclosure-of-airline-ancillary-fees"}]}