{"description":"Documents of type Presidential Document","count":8514,"total_pages":50,"next_page_url":"https://www.federalregister.gov/api/v1/documents?conditions%5Btype%5D%5B%5D=PRESDOCU&fields%5B%5D=title&fields%5B%5D=type&fields%5B%5D=publication_date&fields%5B%5D=abstract&fields%5B%5D=html_url&format=json&order=newest&page=2&per_page=5&search_after_cursor=WzE3ODI3Nzc2MDAwMDAsIjIwMjYtMTMyNTQiXQ","results":[{"title":"250th Anniversary of the Adoption of the Declaration of Independence","type":"Presidential Document","publication_date":"2026-07-08","abstract":null,"html_url":"https://www.federalregister.gov/documents/2026/07/08/2026-13842/250th-anniversary-of-the-adoption-of-the-declaration-of-independence"},{"title":"Presidential Determination on Assistance to Venezuela Consistent With the Trafficking Victims Protection Act of 2000","type":"Presidential Document","publication_date":"2026-07-06","abstract":null,"html_url":"https://www.federalregister.gov/documents/2026/07/06/2026-13631/presidential-determination-on-assistance-to-venezuela-consistent-with-the-trafficking-victims"},{"title":"Declaration of Emergency and Authorization for Temporary Duty-Free Importation of Phosphate Fertilizer From Morocco","type":"Presidential Document","publication_date":"2026-07-02","abstract":null,"html_url":"https://www.federalregister.gov/documents/2026/07/02/2026-13588/declaration-of-emergency-and-authorization-for-temporary-duty-free-importation-of-phosphate"},{"title":"Presidential Determination Concerning the Department of the Air Force's Rehabilitation and Revitalization of the Joint Base Andrews Golf Course","type":"Presidential Document","publication_date":"2026-07-01","abstract":null,"html_url":"https://www.federalregister.gov/documents/2026/07/01/2026-13408/presidential-determination-concerning-the-department-of-the-air-forces-rehabilitation-and"},{"title":"Advancing Regenerative Agriculture and Strengthening American Farm Resilience","type":"Presidential Document","publication_date":"2026-06-30","abstract":null,"html_url":"https://www.federalregister.gov/documents/2026/06/30/2026-13254/advancing-regenerative-agriculture-and-strengthening-american-farm-resilience"}]}